Repeatability of Migration Routes in Moose
…
# Join migration parameters to location points
by_id <- mma %>%
  group_by(MooseYrID = id, burst, animal = Object_ID, Sex) %>%
  nest() %>%
  inner_join(mig_df)

What this looks like:

## # A tibble: 156 x 5
##           MooseYrID       animal    Sex                data
##               <chr>        <chr> <fctr>              <list>
## 1  aa_ac_04_002.yr1 aa_ac_04_002      F <tibble [352 x 25]>
## 2  aa_ac_04_004.yr1 aa_ac_04_004      F <tibble [355 x 25]>
## 3  aa_ac_04_008.yr1 aa_ac_04_008      F <tibble [363 x 25]>
## 4  aa_ac_04_009.yr1 aa_ac_04_009      F <tibble [352 x 25]>
## 5  aa_ac_04_013.yr1 aa_ac_04_013      F <tibble [352 x 25]>
## 6  aa_ac_04_017.yr1 aa_ac_04_017      F <tibble [361 x 25]>
## 7  aa_ac_04_020.yr1 aa_ac_04_020      F <tibble [356 x 25]>
## 8  aa_ac_04_021.yr1 aa_ac_04_021      F <tibble [349 x 25]>
## 9  aa_ac_04_023.yr1 aa_ac_04_023      F <tibble [348 x 25]>
## 10 aa_ac_04_025.yr1 aa_ac_04_025      F <tibble [356 x 25]>
## # ... with 146 more rows, and 1 more variables: params <list>
…
