Santa Rosa Fruit Biomass
…
This package implements three different methods for calculating fruit biomass. The method is controlled by the parameter called “smooth” that is supplied to the get_biomass_sr function.

No Smoothing

When the function is called with smooth = "none", the raw availability indices are averaged for each species in each month and these values are used to calculate biomass for each species.

biomass_avail_raw <- get_biomass_sr(ph, tr, fpv, figs, exclude_species, 
                                    smooth = "none")

We can look at some of the values…

biomass_avail_raw %>% select(SpeciesName, year_of, month_of, biomass_monthly_kg)

## # A tibble: 5,362 x 4
## # Groups:   SpeciesName, year_of [478]
##         SpeciesName year_of month_of biomass_monthly_kg
##               <chr>  <fctr>   <fctr>              <dbl>
##  1 Alibertia edulis    2007      Feb           0.000000
##  2 Alibertia edulis    2007      Mar           4.257945
##  3 Alibertia edulis    2007      Apr           0.000000
##  4 Alibertia edulis    2007      May           0.000000
##  5 Alibertia edulis    2007      Jun           1.520695
##  6 Alibertia edulis    2007      Jul           1.520695
##  7 Alibertia edulis    2007      Aug           0.000000
##  8 Alibertia edulis    2007      Oct           1.140521
##  9 Alibertia edulis    2007      Nov           8.363821
## 10 Alibertia edulis    2007      Dec           0.000000
## # ... with 5,352 more rows
…
